Loan approval and prediction
…
loan$outcome <- as.factor(ifelse(loan$loan_status == "Fully Paid", 0 , 1))
loan$loan_status <- factor(ifelse(loan$loan_status == "Fully Paid", "Fully.Paid" , "Charged.Off"), levels = c("Fully.Paid" , "Charged.Off"))
loan <- na.omit(loan)

EDA

state_freq<-loan%>%group_by(addr_state)%>%
  summarize("count" = n())%>%
  arrange(desc(count))%>%
  mutate("prct" = (count/sum(count))*100)

state_freq

## # A tibble: 51 x 3
##    addr_state  count  prct
##    <fct>       <int> <dbl>
##  1 CA         116470 14.4 
##  2 TX          66706  8.26
##  3 NY          66082  8.18
##  4 FL          57807  7.16
##  5 IL          30662  3.80
##  6 NJ          29040  3.60
##  7 PA          27333  3.38
##  8 OH          26461  3.28
##  9 GA          25762  3.19
## 10 NC          23078  2.86
## # ... with 41 more rows
…
